6. Visualising and Analysing Time-oriented Data
…
Two Time Points: We will be comparing crane counts on two specific days (the 9th and 10th) of each month. The slope graph will assist to illustrate the changes in crane sightings.

6.6.5.1 Data Prepration

The Code

# Aggregate the data to count unique cranes per month per day
crane_counts_9_10 <- crane_data %>%
  filter(day(Time) %in% c(9, 10)) %>%
  mutate(Day = as.factor(day(Time))) %>%
  group_by(Crane, Month_Label, Day) %>%
  summarise(Count = n(), .groups = 'drop')
crane_counts_9_10

# A tibble: 106 × 4
   Crane  Month_Label Day   Count
   <fct>  <chr>       <fct> <int>
 1 100840 Apr         9         4
 2 100840 Apr         10        4
 3 100840 Aug         9         4
 4 100840 Aug         10        4
 5 100840 Dec         10        3
 6 100840 Feb         9         2
 7 100840 Feb         10        4
 8 100840 Jan         9         3
 9 100840 Jan         10        4
10 100840 Jul         9         3
# ℹ 96 more rows
…
